<svg width="95" height="95" viewBox="0 0 95 95" fill="none" xmlns="http://www.w3.org/2000/svg">
<path d="M47.5 95L6.36379 23.75L88.6362 23.75L47.5 95Z" fill="#101010"/>
<path d="M49.4608 61.6118H37.5138V59.5348L44.7916 39.1136H38.0953V35.6076H49.4275V37.8507L42.1663 58.1058H49.4608V61.6118Z" fill="white"/>
<path d="M56.4229 61.6118H52.6012V43.2676H51.1058V42.7525L53.1163 35.6076H56.4229V61.6118Z" fill="#F31526"/>
</svg>
