<svg width="19" height="19" viewBox="0 0 19 19" fill="none" xmlns="http://www.w3.org/2000/svg">
<g clip-path="url(#clip0)">
<path d="M10.4962 6.41433V4.08184C10.4962 3.43808 11.0187 2.9156 11.6625 2.9156H12.8287V0H10.4962C8.56378 0 6.99752 1.56626 6.99752 3.49872V6.41433H4.66504V9.32993H6.99752V18.6599H10.4962V9.32993H12.8287L13.995 6.41433H10.4962Z" fill="white"/>
</g>
<defs>
<clipPath id="clip0">
<rect width="18.6599" height="18.6599" fill="white"/>
</clipPath>
</defs>
</svg>
