<svg width="15" height="15" viewBox="0 0 15 15" fill="none" xmlns="http://www.w3.org/2000/svg">
<path d="M12.3873 0.146729H2.12596C0.953803 0.146729 0 1.10053 0 2.27269V12.534C0 13.7061 0.953803 14.66 2.12596 14.66H12.3873C13.5594 14.66 14.5132 13.7061 14.5132 12.534V2.27269C14.5132 1.10053 13.5594 0.146729 12.3873 0.146729ZM7.28496 11.2017C5.17483 11.2017 3.45823 9.48512 3.45823 7.37499C3.45823 5.26487 5.17483 3.54826 7.28496 3.54826C9.39508 3.54826 11.1117 5.26487 11.1117 7.37499C11.1117 9.48512 9.39508 11.2017 7.28496 11.2017ZM11.5369 4.39865C10.8335 4.39865 10.2613 3.82641 10.2613 3.12307C10.2613 2.41973 10.8335 1.8475 11.5369 1.8475C12.2402 1.8475 12.8125 2.41973 12.8125 3.12307C12.8125 3.82641 12.2402 4.39865 11.5369 4.39865Z" fill="#101010"/>
<path d="M11.537 2.69775C11.3024 2.69775 11.1118 2.88832 11.1118 3.12295C11.1118 3.35758 11.3024 3.54814 11.537 3.54814C11.7716 3.54814 11.9622 3.35758 11.9622 3.12295C11.9622 2.88832 11.7716 2.69775 11.537 2.69775Z" fill="#101010"/>
<path d="M7.28494 4.39844C5.64396 4.39844 4.30859 5.73381 4.30859 7.37478C4.30859 9.01576 5.64396 10.3511 7.28494 10.3511C8.92591 10.3511 10.2613 9.01576 10.2613 7.37478C10.2613 5.73381 8.92591 4.39844 7.28494 4.39844Z" fill="#101010"/>
</svg>
