<svg width="40" height="40" viewBox="0 0 40 40" fill="none" xmlns="http://www.w3.org/2000/svg">
<mask id="mask0" mask-type="alpha" maskUnits="userSpaceOnUse" x="12" y="12" width="16" height="16">
<path d="M20.7116 13.4112L15.4764 18.6464L14.6229 19.5L15.83 19.5L27.5 19.5L27.5 20.5L15.83 20.5L14.6244 20.5L15.4761 21.3532L20.7032 26.5897L20 27.2929L12.7071 20L20.0012 12.7059L20.7116 13.4112Z" fill="#333333" stroke="black"/>
</mask>
<g mask="url(#mask0)">
<rect x="36" y="36" width="32" height="32" transform="rotate(180 36 36)" fill="white"/>
</g>
</svg>
